1 10 20
100 200 125
201 210 89
900 1000 174
1001 1050 156
1051 1100 169
1200 1300 177
1301 1350 177
1400 1450 172
1500 1600 167
1601 1650 167
1700 1750 180
1751 1800 149
1900 2000 175
2100 2150 170
2200 2300 183
2301 2350 183
2400 2450 165
2500 2600 178
2601 2700 191
2800 2850 173
2900 2950 217
3000 3100 186
3101 3200 199
3300 3350 181
3400 3450 150
3500 3600 194
3650 3700 207
3750 3800 176
3850 3900 145
3950 4000 189
4050 4100 158
4150 4200 158
4250 4300 202
4350 4400 215
4450 4500 184
4550 4600 184
4650 4700 153
4750 4800 197
4850 4900 179
4950 5000 179
5100 5150 179
5200 5300 192
5400 5450 161
5500 5550 205
5600 5650 174
5700 5750 174
5800 5850 218
5900 6000 187
6100 6150 187
6200 6250 187
6350 6400 200
6450 6500 169
6550 6600 244
6650 6700 182
6750 6800 182
6850 6900 182
7000 7100 195
7200 7300 177
7350 7400 208
7450 7500 177
7550 7600 177
7650 7700 177
7750 7800 221
7850 7900 190
8000 8100 190
8200 8300 190
8400 8450 203
8500 8550 203
8600 8650 172
8700 8750 172
8800 8850 172
8900 8950 154
9050 9100 185
9150 9200 198
9250 9300 260
9350 9400 198
9450 9500 198
9550 9600 198
9650 9700 185
9750 9800 198
9850 9900 242
9950 10000 180
10050 10100 224
10150 10200 180
10250 10300 149
10350 10400 224
10450 10500 180
10550 10600 162
10650 10700 193
10750 10800 193
10850 10900 206
10950 11000 268
11050 11100 206
11150 11200 162
11250 11300 206
11301 11350 206
11351 11400 206
11450 11500 175
11550 11600 206
11650 11700 219
11750 11800 175
11850 11900 188
11950 12000 188
12050 12100 188
12150 12200 188
12250 12300 157
12350 12400 263
12450 12500 201
12550 12600 263
12650 12700 201
12750 12800 201
12850 12900 170
12950 13000 201
13050 13100 170
13150 13200 245
13250 13300 276
13350 13400 139
13450 13500 183
13550 13600 245
13650 13700 183
13750 13800 183
13850 13900 258
13950 14000 152
14050 14100 183
14150 14200 152
14250 14300 196
14350 14400 196
14450 14500 209
14550 14600 178
14650 14700 271
14750 14800 209
14850 14900 165
14950 15000 209
15050 15100 209
15150 15200 209
15250 15300 178
15350 15400 240
15450 15500 209
15550 15600 222
15650 15700 178
15750 15800 191
15850 15900 222
15950 16000 191
16050 16100 235
16150 16200 191
16250 16300 204
16350 16400 191
16450 16500 266
16550 16600 160
16650 16700 191
16750 16800 266
16850 16900 204
16950 17000 142
17050 17100 204
17150 17200 235
17250 113000 354
