1 10 20
100 200 125
201 210 89
900 1000 174
92 59 116
252598 252585 182
738080 738117 318
156203 155228 383
864732 864732 70
614937 615061 447
482636 482745 276
345768 345703 273
934110 934110 109
789666 788560 406
281865 281963 252
534285 534125 346
654837 654926 323
139892 137906 313
598295 598197 341
784310 784442 300
937401 937512 277
275425 273448 358
169732 169732 153
868491 868355 339
447613 447480 219
697282 697179 305
972409 971301 339
618637 618752 310
384871 385003 237
579924 579924 72
173297 173317 184
925439 925371 202
354842 353962 348
811760 811684 207
222141 222104 187
678597 678717 380
461063 461152 276
989035 989134 321
592738 592795 328
719671 718595 318
316348 316281 247
245975 245869 257
849762 848868 313
534882 534882 121
721472 721555 212
418715 418715 175
976085 976134 246
678104 677104 336
216368 216290 386
983900 983996 259
359253 359299 242
572591 571631 372
264004 263912 288
927775 927690 233
135444 134526 344
775997 775892 207
617429 617362 328
471359 470487 307
864876 864785 326
153561 153490 202
788711 788820 256
241160 240223 368
935503 935596 233
389344 389445 224
596217 596156 266
738925 738024 424
472057 472057 108
867662 867569 233
342682 341682 353
184047 184102 241
724799 724878 243
491488 491424 258
983704 982635 383
686417 686324 261
378491 378564 255
549729 548669 333
947427 947520 295
257071 256986 345
123188 123127 256
845216 844155 357
539814 539814 103
669151 669234 261
416508 416508 118
986774 985668 321
742905 742791 318
394462 394552 237
563486 563543 222
299867 298940 327
210748 210665 324
656843 656947 261
428364 428292 294
924311 923206 370
147154 147083 233
795270 795185 269
316454 316539 309
217949 216885 324
922019 921914 277
362243 362243 92
681014 681014 230
465070 465141 170
996917 995917 365
587819 587890 328
703105 703040 274
387356 387449 206
546946 545881 452
962217 962119 259
276708 276628 314
183423 183364 210
877642 876539 401
444647 444647 118
795413 795302 225
169211 169149 228
619065 618169 310
366976 366891 242
745999 746104 256
421243 421345 242
989124 989124 96
775614 774537 437
252148 252221 226
148562 148468 282
787686 787764 261
289456 289378 265
659006 658006 398
412760 412760 193
972261 972348 246
